<svg width="24" height="24" viewBox="0 0 24 24" fill="none" xmlns="http://www.w3.org/2000/svg">
    <g filter="url(#filter0_b)">
        <rect width="24" height="24" rx="6" fill="url(#paint0_linear)"/>
    </g>
    <path d="M11.0633 14.9885C10.987 15.0654 10.8828 15.1082 10.7746 15.1082C10.6663 15.1082 10.5621 15.0654 10.4858 14.9885L8.17951 12.6819C7.94016 12.4425 7.94016 12.0544 8.17951 11.8155L8.46829 11.5267C8.7077 11.2874 9.09536 11.2874 9.3347 11.5267L10.7746 12.9666L14.6653 9.07584C14.9047 8.8365 15.2927 8.8365 15.5317 9.07584L15.8205 9.36469C16.0598 9.60403 16.0598 9.99207 15.8205 10.231L11.0633 14.9885Z" fill="white"/>
    <defs>
        <filter id="filter0_b" x="-18" y="-18" width="60" height="60" filterUnits="userSpaceOnUse" color-interpolation-filters="sRGB">
            <feFlood flood-opacity="0" result="BackgroundImageFix"/>
            <feGaussianBlur in="BackgroundImage" stdDeviation="9"/>
            <feComposite in2="SourceAlpha" operator="in" result="effect1_backgroundBlur"/>
            <feBlend mode="normal" in="SourceGraphic" in2="effect1_backgroundBlur" result="shape"/>
        </filter>
        <linearGradient id="paint0_linear" x1="12" y1="0" x2="12" y2="24" gradientUnits="userSpaceOnUse">
            <stop stop-color="#D10286"/>
            <stop offset="1" stop-color="#D10286" stop-opacity="0"/>
        </linearGradient>
    </defs>
</svg>
