<svg width="34" height="42" viewBox="0 0 34 42" fill="none" xmlns="http://www.w3.org/2000/svg">
    <g filter="url(#filter0_dd)">
        <path d="M17.4977 29.7938C17.4979 29.7936 17.4982 29.7934 17.4984 29.7931L21.1546 26.1192C21.4285 25.8439 21.4275 25.3988 21.1522 25.1248C20.877 24.8508 20.4318 24.8519 20.1579 25.1271L17.7031 27.5938L17.7031 12.7031C17.7031 12.3148 17.3883 12 17 12C16.6117 12 16.2969 12.3148 16.2969 12.7031L16.2969 27.5938L13.8421 25.1272C13.5682 24.8519 13.123 24.8509 12.8478 25.1248C12.5725 25.3988 12.5715 25.844 12.8454 26.1192L16.5016 29.7932C16.5018 29.7934 16.5021 29.7936 16.5023 29.7938C16.7771 30.0692 17.2238 30.0683 17.4977 29.7938Z" fill="#D10286"/>
    </g>
    <defs>
        <filter id="filter0_dd" x="-4" y="0" width="42" height="42" filterUnits="userSpaceOnUse" color-interpolation-filters="sRGB">
            <feFlood flood-opacity="0" result="BackgroundImageFix"/>
            <feColorMatrix in="SourceAlpha" type="matrix" values="0 0 0 0 0 0 0 0 0 0 0 0 0 0 0 0 0 0 127 0"/>
            <feOffset/>
            <feGaussianBlur stdDeviation="6"/>
            <feColorMatrix type="matrix" values="0 0 0 0 0.819608 0 0 0 0 0.00784314 0 0 0 0 0.52549 0 0 0 1 0"/>
            <feBlend mode="normal" in2="BackgroundImageFix" result="effect1_dropShadow"/>
            <feColorMatrix in="SourceAlpha" type="matrix" values="0 0 0 0 0 0 0 0 0 0 0 0 0 0 0 0 0 0 127 0"/>
            <feOffset dx="12" dy="12"/>
            <feColorMatrix type="matrix" values="0 0 0 0 0.819608 0 0 0 0 0.00784314 0 0 0 0 0.52549 0 0 0 0.08 0"/>
            <feBlend mode="normal" in2="effect1_dropShadow" result="effect2_dropShadow"/>
            <feBlend mode="normal" in="SourceGraphic" in2="effect2_dropShadow" result="shape"/>
        </filter>
    </defs>
</svg>
