<svg width="56" height="56" viewBox="0 0 56 56" fill="none" xmlns="http://www.w3.org/2000/svg">
    <g filter="url(#filter0_dd)">
        <path d="M28.1875 19.5C26.1198 19.5 24.4375 17.8177 24.4375 15.75C24.4375 13.6823 26.1198 12 28.1875 12C30.2552 12 31.9375 13.6823 31.9375 15.75C31.9375 17.8177 30.2552 19.5 28.1875 19.5ZM28.1875 14.5C27.4983 14.5 26.9375 15.0608 26.9375 15.75C26.9375 16.4392 27.4983 17 28.1875 17C28.8768 17 29.4375 16.4392 29.4375 15.75C29.4375 15.0608 28.8768 14.5 28.1875 14.5ZM33.75 26C33.75 23.1741 31.4186 20.875 28.553 20.875H27.8221C24.9564 20.875 22.625 23.1741 22.625 26C22.625 26.6904 23.1846 27.25 23.875 27.25C24.5654 27.25 25.125 26.6904 25.125 26C25.125 24.5526 26.3349 23.375 27.822 23.375H28.5529C30.0401 23.375 31.25 24.5526 31.25 26C31.25 26.6904 31.8096 27.25 32.5 27.25C33.1904 27.25 33.75 26.6904 33.75 26ZM17.5625 36.25C15.4948 36.25 13.8125 34.5677 13.8125 32.5C13.8125 30.4323 15.4948 28.75 17.5625 28.75C19.6302 28.75 21.3125 30.4323 21.3125 32.5C21.3125 34.5677 19.6302 36.25 17.5625 36.25ZM17.5625 31.25C16.8733 31.25 16.3125 31.8107 16.3125 32.5C16.3125 33.1893 16.8733 33.75 17.5625 33.75C18.2517 33.75 18.8125 33.1893 18.8125 32.5C18.8125 31.8107 18.2517 31.25 17.5625 31.25ZM23.125 42.75C23.125 39.9241 20.7936 37.625 17.928 37.625H17.197C14.3314 37.625 12 39.9241 12 42.75C12 43.4404 12.5596 44 13.25 44C13.9404 44 14.5 43.4404 14.5 42.75C14.5 41.3026 15.7099 40.125 17.197 40.125H17.9279C19.4151 40.125 20.625 41.3026 20.625 42.75C20.625 43.4404 21.1846 44 21.875 44C22.5654 44 23.125 43.4404 23.125 42.75ZM38.4375 36.25C36.3698 36.25 34.6875 34.5677 34.6875 32.5C34.6875 30.4323 36.3698 28.75 38.4375 28.75C40.5052 28.75 42.1875 30.4323 42.1875 32.5C42.1875 34.5677 40.5052 36.25 38.4375 36.25ZM38.4375 31.25C37.7482 31.25 37.1875 31.8107 37.1875 32.5C37.1875 33.1893 37.7482 33.75 38.4375 33.75C39.1268 33.75 39.6875 33.1893 39.6875 32.5C39.6875 31.8107 39.1268 31.25 38.4375 31.25ZM44 42.75C44 39.9241 41.6686 37.625 38.803 37.625H38.0721C35.2064 37.625 32.875 39.9241 32.875 42.75C32.875 43.4404 33.4346 44 34.125 44C34.8154 44 35.375 43.4404 35.375 42.75C35.375 41.3026 36.5849 40.125 38.072 40.125H38.8029C40.2901 40.125 41.5 41.3026 41.5 42.75C41.5 43.4404 42.0596 44 42.75 44C43.4404 44 44 43.4404 44 42.75ZM39.4876 26.6252C38.9231 26.6252 38.4111 26.2402 38.2733 25.6672C37.6909 23.2446 36.2476 21.1059 34.2093 19.6449C33.6482 19.2427 33.5194 18.4618 33.9216 17.9007C34.3239 17.3395 35.1048 17.2108 35.6658 17.6129C38.192 19.4237 39.9813 22.0765 40.7041 25.0828C40.8654 25.754 40.4521 26.4289 39.7809 26.5903C39.6827 26.614 39.5844 26.6252 39.4876 26.6252ZM18.0392 25.6672C18.6159 23.2689 20.0393 21.1443 22.0474 19.6849C22.6059 19.2791 22.7296 18.4974 22.3237 17.9389C21.9178 17.3804 21.1359 17.2567 20.5776 17.6626C18.0888 19.4714 16.324 22.1066 15.6084 25.0828C15.4471 25.7541 15.8604 26.429 16.5316 26.5904C16.6299 26.614 16.7281 26.6253 16.8249 26.6253C17.3893 26.6252 17.9014 26.2402 18.0392 25.6672ZM31.9966 39.1287C32.6558 38.9235 33.0238 38.2227 32.8184 37.5636C32.6132 36.9046 31.9127 36.5364 31.2533 36.7418C30.1551 37.0838 29.142 37.25 28.1562 37.25C27.1195 37.25 26.0212 37.0609 24.8919 36.688C24.2363 36.4716 23.5294 36.8275 23.3131 37.4831C23.0966 38.1386 23.4525 38.8455 24.1081 39.062C25.4907 39.5185 26.8527 39.75 28.1562 39.75C29.3979 39.75 30.6541 39.5468 31.9966 39.1287Z" fill="#54F7C5"/>
    </g>
    <defs>
        <filter id="filter0_dd" x="0" y="0" width="56" height="56" filterUnits="userSpaceOnUse" color-interpolation-filters="sRGB">
            <feFlood flood-opacity="0" result="BackgroundImageFix"/>
            <feColorMatrix in="SourceAlpha" type="matrix" values="0 0 0 0 0 0 0 0 0 0 0 0 0 0 0 0 0 0 127 0"/>
            <feOffset/>
            <feGaussianBlur stdDeviation="6"/>
            <feColorMatrix type="matrix" values="0 0 0 0 0.4375 0 0 0 0 1 0 0 0 0 0.827454 0 0 0 1 0"/>
            <feBlend mode="normal" in2="BackgroundImageFix" result="effect1_dropShadow"/>
            <feColorMatrix in="SourceAlpha" type="matrix" values="0 0 0 0 0 0 0 0 0 0 0 0 0 0 0 0 0 0 127 0"/>
            <feOffset dx="4" dy="8"/>
            <feColorMatrix type="matrix" values="0 0 0 0 0.329412 0 0 0 0 0.968627 0 0 0 0 0.772549 0 0 0 0.1 0"/>
            <feBlend mode="normal" in2="effect1_dropShadow" result="effect2_dropShadow"/>
            <feBlend mode="normal" in="SourceGraphic" in2="effect2_dropShadow" result="shape"/>
        </filter>
    </defs>
</svg>
