<svg width="320" height="62" viewBox="0 0 320 62" fill="none" xmlns="http://www.w3.org/2000/svg">
    <g filter="url(#filter0_f)">
        <path d="M52.4076 45.9333H42.9643L42.8425 32.3037L36.2017 43.2074H31.6324L29.4391 39.7111L30.4139 38.1111L32.6072 41.5481H35.2269L44.5483 26.2593L44.6702 44.2148H50.6408L50.5799 17.7259H44.792L34.0694 35.2074L33.0336 33.6074L31.0231 30.3481L28.3425 34.8518L27.3677 36.5111L26.332 34.8518L25.2962 33.2519L24.9916 32.7778V45.9333H15.5483V16.0667H24.0778L28.8908 23.7704L27.916 25.4296L23.103 17.7259H17.2542V44.2148H23.2248V26.8519L25.2353 29.9926L26.271 31.5926L27.3067 33.2519L29.9874 28.6889L30.9622 27.0296L31.9979 28.6889L33.0336 30.2889L34.0694 31.9481L43.8173 16.0667H52.2857L52.4076 45.9333Z" fill="#54F7C5"/>
        <path d="M81.2857 26.7926C81.834 28.037 82.1386 29.4593 82.1386 31C82.1386 32.7778 81.773 34.3778 81.042 35.7407C80.3109 37.163 79.2142 38.2296 77.9348 39C76.5945 39.7704 75.1323 40.1852 73.5483 40.1852C73.4873 40.1852 73.4264 40.1852 73.4264 40.1852L74.4621 38.4667C75.4369 38.3482 76.2899 38.0519 77.0819 37.5778C78.1176 36.9852 78.9705 36.0963 79.5798 34.9704C80.189 33.8444 80.4936 32.5407 80.4936 31C80.4936 30.1704 80.3718 29.4593 80.2499 28.7482C80.1281 28.1556 79.8844 27.563 79.5798 27.0889C79.5188 26.9704 79.4579 26.9111 79.397 26.7926C79.0924 26.2593 78.6659 25.7852 78.2394 25.3704C77.8739 25.0148 77.5083 24.7185 77.0819 24.4815C77.0209 24.4222 76.96 24.363 76.8382 24.363L77.6911 22.8815L80.3718 18.3185C79.8235 18.0815 79.2752 17.9037 78.7268 17.7852C78.1785 17.6074 77.5693 17.4889 76.96 17.3704C75.8634 17.1926 74.7058 17.0741 73.5483 17.0741C70.563 17.0741 67.8214 17.6667 65.4453 18.9111C63.1302 20.0963 61.2415 21.7556 59.9012 23.8889C58.5609 25.963 57.9516 28.3926 57.9516 31.0593C57.9516 33.7259 58.6218 36.1556 59.9012 38.2296C60.6323 39.4148 61.6071 40.4815 62.7037 41.3704L61.8508 42.8519C60.5104 41.7852 59.3529 40.5407 58.439 39.0593C56.9768 36.6889 56.1848 34.0222 56.1848 31C56.1848 28.037 56.9159 25.3111 58.439 22.9407C59.9012 20.5704 61.9726 18.7333 64.6533 17.3704C67.273 16.0667 70.2583 15.3556 73.5483 15.3556C75.0714 15.3556 76.5336 15.4741 77.8739 15.7704C78.4831 15.8889 79.0315 16.0074 79.6407 16.1852C80.189 16.363 80.7373 16.5407 81.2857 16.7778C81.7121 16.9556 82.0777 17.1333 82.5041 17.3111C82.626 17.3704 82.7478 17.4296 82.8697 17.4889L82.0167 18.9704L79.1533 23.7704C79.5798 24.1259 80.0062 24.6 80.3718 25.0741C80.6155 25.4296 80.8592 25.7852 81.1029 26.2C81.1029 26.437 81.1638 26.6148 81.2857 26.7926Z" fill="#54F7C5"/>
        <path d="M90.79 31C90.79 33.963 90.0589 36.6889 88.5358 39.0593C87.0736 41.4296 85.0022 43.3259 82.3824 44.6296C79.7627 45.9926 76.7774 46.6444 73.4875 46.6444C72.1471 46.6444 70.9286 46.5259 69.7102 46.2889C69.1009 46.1704 68.4917 46.0518 67.9433 45.8741C67.395 45.6963 66.8467 45.5185 66.2984 45.3407C65.7501 45.1037 65.2018 44.9259 64.7144 44.6296L65.5673 43.1481L68.3698 38.4074C67.8824 38.0518 67.4559 37.637 67.0904 37.2222C66.6639 36.7481 66.3593 36.2148 66.0547 35.6815C65.3236 34.3185 64.958 32.7185 64.958 30.9407C64.958 29.163 65.3236 27.563 66.1156 26.2C66.8467 24.837 67.8824 23.7111 69.2228 22.9407C70.5631 22.1704 72.0253 21.7555 73.6093 21.7555C73.853 21.7555 74.0967 21.7555 74.3404 21.7555L73.3656 23.4148C72.208 23.4741 71.1114 23.7704 70.1366 24.3037C69.1009 24.8963 68.248 25.7852 67.6387 26.9111C67.0295 28.037 66.7249 29.3407 66.7249 30.8815C66.7249 31.9481 66.8467 32.8963 67.2122 33.7852C67.3341 34.1407 67.4559 34.4963 67.6996 34.8518C67.8215 35.1481 68.0043 35.3852 68.187 35.6222C68.5526 36.0963 68.9181 36.5704 69.4055 36.9259C69.6492 37.1037 69.8929 37.2815 70.1975 37.4593C70.4412 37.5778 70.624 37.6963 70.8677 37.8148L70.0148 39.2963L67.3341 43.8C67.8824 43.9778 68.4307 44.1556 69.04 44.3333C69.6492 44.4518 70.1975 44.5704 70.8068 44.6889C71.7207 44.8074 72.6954 44.8667 73.6702 44.8667C76.6555 44.8667 79.3971 44.2741 81.7732 43.0296C84.0883 41.8444 85.977 40.1852 87.2564 38.0518C88.5967 35.9778 89.2669 33.5481 89.2669 30.8815C89.2669 28.2148 88.5967 25.8444 87.2564 23.7111C86.5862 22.6444 85.7942 21.6963 84.8803 20.8667L85.7333 19.3852C86.8908 20.3926 87.9265 21.5185 88.7185 22.8222C90.0589 25.3111 90.79 27.9778 90.79 31Z" fill="#54F7C5"/>
        <path d="M104.559 24.363C102.914 26.0222 102.061 28.2741 102.061 31C102.061 31.9481 102.183 32.7778 102.366 33.6074L103.767 31.237V31C103.767 28.6889 104.437 26.8518 105.777 25.5481C106.387 24.8963 107.118 24.4222 107.971 24.1259L109.189 22.0518C107.422 22.2889 105.838 23.1185 104.559 24.363ZM104.559 24.363C102.914 26.0222 102.061 28.2741 102.061 31C102.061 31.9481 102.183 32.7778 102.366 33.6074L103.767 31.237V31C103.767 28.6889 104.437 26.8518 105.777 25.5481C106.387 24.8963 107.118 24.4222 107.971 24.1259L109.189 22.0518C107.422 22.2889 105.838 23.1185 104.559 24.363ZM104.559 24.363C102.914 26.0222 102.061 28.2741 102.061 31C102.061 31.9481 102.183 32.7778 102.366 33.6074L103.767 31.237V31C103.767 28.6889 104.437 26.8518 105.777 25.5481C106.387 24.8963 107.118 24.4222 107.971 24.1259L109.189 22.0518C107.422 22.2889 105.838 23.1185 104.559 24.363ZM104.559 24.363C102.914 26.0222 102.061 28.2741 102.061 31C102.061 31.9481 102.183 32.7778 102.366 33.6074L103.767 31.237V31C103.767 28.6889 104.437 26.8518 105.777 25.5481C106.387 24.8963 107.118 24.4222 107.971 24.1259L109.189 22.0518C107.422 22.2889 105.838 23.1185 104.559 24.363ZM104.559 24.363C102.914 26.0222 102.061 28.2741 102.061 31C102.061 31.9481 102.183 32.7778 102.366 33.6074L103.767 31.237V31C103.767 28.6889 104.437 26.8518 105.777 25.5481C106.387 24.8963 107.118 24.4222 107.971 24.1259L109.189 22.0518C107.422 22.2889 105.838 23.1185 104.559 24.363ZM104.559 24.363C102.914 26.0222 102.061 28.2741 102.061 31C102.061 31.9481 102.183 32.7778 102.366 33.6074L103.767 31.237V31C103.767 28.6889 104.437 26.8518 105.777 25.5481C106.387 24.8963 107.118 24.4222 107.971 24.1259L109.189 22.0518C107.422 22.2889 105.838 23.1185 104.559 24.363ZM104.559 24.363C102.914 26.0222 102.061 28.2741 102.061 31C102.061 31.9481 102.183 32.7778 102.366 33.6074L103.767 31.237V31C103.767 28.6889 104.437 26.8518 105.777 25.5481C106.387 24.8963 107.118 24.4222 107.971 24.1259L109.189 22.0518C107.422 22.2889 105.838 23.1185 104.559 24.363ZM104.559 24.363C102.914 26.0222 102.061 28.2741 102.061 31C102.061 31.9481 102.183 32.7778 102.366 33.6074L103.767 31.237V31C103.767 28.6889 104.437 26.8518 105.777 25.5481C106.387 24.8963 107.118 24.4222 107.971 24.1259L109.189 22.0518C107.422 22.2889 105.838 23.1185 104.559 24.363ZM104.559 24.363C102.914 26.0222 102.061 28.2741 102.061 31C102.061 31.9481 102.183 32.7778 102.366 33.6074L103.767 31.237V31C103.767 28.6889 104.437 26.8518 105.777 25.5481C106.387 24.8963 107.118 24.4222 107.971 24.1259L109.189 22.0518C107.422 22.2889 105.838 23.1185 104.559 24.363ZM104.559 24.363C102.914 26.0222 102.061 28.2741 102.061 31C102.061 31.9481 102.183 32.7778 102.366 33.6074L103.767 31.237V31C103.767 28.6889 104.437 26.8518 105.777 25.5481C106.387 24.8963 107.118 24.4222 107.971 24.1259L109.189 22.0518C107.422 22.2889 105.838 23.1185 104.559 24.363Z" fill="#54F7C5"/>
        <path d="M114.916 30.1704H123.933V42.7926C122.105 44.037 120.034 44.9852 117.597 45.637C115.221 46.2889 112.845 46.6444 110.529 46.6444C108.58 46.6444 106.752 46.4074 105.046 45.9333L105.96 44.4519C107.422 44.8074 108.945 44.9852 110.529 44.9852C112.662 44.9852 114.916 44.6889 117.109 44.0963C118.998 43.563 120.704 42.8519 122.166 41.963V31.8296H116.622V38.8222L115.525 39.237C114.124 39.8296 112.601 40.0667 111.078 40.0667C110.164 40.0667 109.372 39.9481 108.58 39.7704C107.971 39.6519 107.422 39.4741 106.935 39.1778C106.387 38.9407 105.899 38.6444 105.473 38.2889L102.609 43.0889L101.756 44.5704C101.695 44.5704 101.695 44.5704 101.695 44.5111C101.208 44.2741 100.721 43.9778 100.294 43.7407C99.8067 43.4444 99.3193 43.0889 98.8929 42.7333C98.4055 42.3778 97.979 41.963 97.6135 41.5481C96.8824 40.7778 96.2122 39.8889 95.6029 39C94.1408 36.6296 93.4097 33.9037 93.4097 30.8815C93.4097 27.8593 94.1408 25.1926 95.6029 22.8222C97.0651 20.4519 99.1366 18.6148 101.817 17.2519C104.437 15.9481 107.422 15.2963 110.773 15.2963C111.565 15.2963 112.418 15.3556 113.149 15.4148C113.758 15.4741 114.368 15.5333 114.977 15.6519C115.586 15.7704 116.195 15.8889 116.744 16.0667C117.292 16.2444 117.84 16.4222 118.389 16.6L117.536 18.0815L114.977 22.4074C115.525 22.5852 116.013 22.8815 116.561 23.1185C117.048 23.4148 117.536 23.7111 117.962 24.0667C118.084 24.1852 118.206 24.2444 118.267 24.363L122.349 20.8667C121.8 20.3926 121.252 19.9185 120.643 19.563L121.496 18.0815C122.714 18.8519 123.872 19.8593 124.786 20.9852L118.145 26.6741C117.779 26.2593 117.414 25.9037 117.048 25.5481C116.622 25.1926 116.134 24.837 115.647 24.5407C115.16 24.2444 114.611 24.0074 114.063 23.8296C113.515 23.6519 112.905 23.5333 112.296 23.4148L113.21 21.8741L115.83 17.4889C115.282 17.3704 114.672 17.2519 114.063 17.1333C113.454 17.0148 112.845 16.9556 112.174 16.9556C111.687 16.8963 111.2 16.8963 110.773 16.8963C107.727 16.8963 104.985 17.4889 102.609 18.6741C100.233 19.8593 98.4055 21.5185 97.1261 23.5926C95.8466 25.6667 95.1765 28.0963 95.1765 30.8222C95.1765 33.4889 95.8466 35.9185 97.1261 38.0519C97.5525 38.763 98.0399 39.3556 98.5882 39.9481C99.0147 40.363 99.3803 40.7778 99.8677 41.1926C100.294 41.5482 100.782 41.9037 101.269 42.2L104.315 37.0444L105.229 35.4444C105.412 35.7407 105.655 35.9778 105.899 36.2148C106.082 36.3926 106.265 36.5704 106.447 36.7481C106.874 37.1037 107.361 37.4 107.91 37.637C108.458 37.8741 109.006 38.0519 109.616 38.1111C110.103 38.2296 110.651 38.2296 111.2 38.2296C112.54 38.2296 113.758 37.9926 114.977 37.5185V30.1704H114.916Z" fill="#54F7C5"/>
        <path d="M157.99 16.0667V32.4815C157.99 36.9259 156.649 40.4222 154.029 42.9111C151.41 45.4 147.693 46.6444 143.002 46.6444C141.296 46.6444 139.712 46.4667 138.25 46.1704C137.641 46.0518 137.092 45.8741 136.544 45.6963C135.996 45.5185 135.448 45.2815 134.96 45.0444C134.473 44.8074 133.924 44.5111 133.498 44.1556L134.351 42.6741L137.641 37.1037C137.336 36.5111 137.092 35.8 136.91 34.9704C136.727 34.1407 136.666 33.1926 136.666 32.1852V17.7259H129.782V32.4815C129.782 35.6222 130.452 38.1704 131.853 40.1259L130.939 41.7259C129.05 39.3556 128.076 36.2741 128.076 32.4815V16.0667H138.433V32.1852C138.433 32.3037 138.433 32.363 138.433 32.4815C138.433 33.5481 138.555 34.4963 138.798 35.2667C138.981 35.9778 139.286 36.5111 139.651 36.9852L139.712 37.0444L138.798 38.5852L135.874 43.5037C136.361 43.7407 136.91 43.9778 137.519 44.1556C138.067 44.3333 138.616 44.4518 139.225 44.5704C140.382 44.8074 141.662 44.9259 143.063 44.9259C147.328 44.9259 150.557 43.8593 152.872 41.6667C155.187 39.5333 156.284 36.5111 156.284 32.4815V17.7259H149.582V32.1852C149.582 34.7926 149.095 36.6889 147.998 37.9926C147.206 39 145.744 40.1259 143.124 40.1259C142.698 40.1259 142.271 40.0667 141.906 40.0074L142.88 38.4074C142.941 38.4074 143.063 38.4074 143.124 38.4074C144.647 38.4074 145.805 37.9333 146.597 36.9259C147.389 35.9185 147.815 34.3185 147.815 32.1259V16.0667H157.99Z" fill="#54F7C5"/>
        <path d="M186.929 38.1111V45.9333H171.698L172.672 44.2148L175.292 39.7704H171.332V17.7259H164.448V44.2148H168.712L167.677 45.9333H162.742V16.0667H173.038V38.1111H178.277L177.303 39.7704L174.683 44.2148H185.223V39.7704H181.324L182.298 38.1111H186.929Z" fill="#54F7C5"/>
    </g>
    <path d="M52.4076 45.9333H42.9643L42.8425 32.3037L36.2017 43.2074H31.6324L29.4391 39.7111L30.4139 38.1111L32.6072 41.5481H35.2269L44.5483 26.2593L44.6702 44.2148H50.6408L50.5799 17.7259H44.792L34.0694 35.2074L33.0336 33.6074L31.0231 30.3481L28.3425 34.8518L27.3677 36.5111L26.332 34.8518L25.2962 33.2519L24.9916 32.7778V45.9333H15.5483V16.0667H24.0778L28.8908 23.7704L27.916 25.4296L23.103 17.7259H17.2542V44.2148H23.2248V26.8519L25.2353 29.9926L26.271 31.5926L27.3067 33.2519L29.9874 28.6889L30.9622 27.0296L31.9979 28.6889L33.0336 30.2889L34.0694 31.9481L43.8173 16.0667H52.2857L52.4076 45.9333Z" fill="#54F7C5"/>
    <path d="M81.2857 26.7926C81.834 28.037 82.1386 29.4593 82.1386 31C82.1386 32.7778 81.773 34.3778 81.042 35.7407C80.3109 37.163 79.2142 38.2296 77.9348 39C76.5945 39.7704 75.1323 40.1852 73.5483 40.1852C73.4873 40.1852 73.4264 40.1852 73.4264 40.1852L74.4621 38.4667C75.4369 38.3482 76.2899 38.0519 77.0819 37.5778C78.1176 36.9852 78.9705 36.0963 79.5798 34.9704C80.189 33.8444 80.4936 32.5407 80.4936 31C80.4936 30.1704 80.3718 29.4593 80.2499 28.7482C80.1281 28.1556 79.8844 27.563 79.5798 27.0889C79.5188 26.9704 79.4579 26.9111 79.397 26.7926C79.0924 26.2593 78.6659 25.7852 78.2394 25.3704C77.8739 25.0148 77.5083 24.7185 77.0819 24.4815C77.0209 24.4222 76.96 24.363 76.8382 24.363L77.6911 22.8815L80.3718 18.3185C79.8235 18.0815 79.2752 17.9037 78.7268 17.7852C78.1785 17.6074 77.5693 17.4889 76.96 17.3704C75.8634 17.1926 74.7058 17.0741 73.5483 17.0741C70.563 17.0741 67.8214 17.6667 65.4453 18.9111C63.1302 20.0963 61.2415 21.7556 59.9012 23.8889C58.5609 25.963 57.9516 28.3926 57.9516 31.0593C57.9516 33.7259 58.6218 36.1556 59.9012 38.2296C60.6323 39.4148 61.6071 40.4815 62.7037 41.3704L61.8508 42.8519C60.5104 41.7852 59.3529 40.5407 58.439 39.0593C56.9768 36.6889 56.1848 34.0222 56.1848 31C56.1848 28.037 56.9159 25.3111 58.439 22.9407C59.9012 20.5704 61.9726 18.7333 64.6533 17.3704C67.273 16.0667 70.2583 15.3556 73.5483 15.3556C75.0714 15.3556 76.5336 15.4741 77.8739 15.7704C78.4831 15.8889 79.0315 16.0074 79.6407 16.1852C80.189 16.363 80.7373 16.5407 81.2857 16.7778C81.7121 16.9556 82.0777 17.1333 82.5041 17.3111C82.626 17.3704 82.7478 17.4296 82.8697 17.4889L82.0167 18.9704L79.1533 23.7704C79.5798 24.1259 80.0062 24.6 80.3718 25.0741C80.6155 25.4296 80.8592 25.7852 81.1029 26.2C81.1029 26.437 81.1638 26.6148 81.2857 26.7926Z" fill="#54F7C5"/>
    <path d="M90.79 31C90.79 33.963 90.0589 36.6889 88.5358 39.0593C87.0736 41.4296 85.0022 43.3259 82.3824 44.6296C79.7627 45.9926 76.7774 46.6444 73.4875 46.6444C72.1471 46.6444 70.9286 46.5259 69.7102 46.2889C69.1009 46.1704 68.4917 46.0518 67.9433 45.8741C67.395 45.6963 66.8467 45.5185 66.2984 45.3407C65.7501 45.1037 65.2018 44.9259 64.7144 44.6296L65.5673 43.1481L68.3698 38.4074C67.8824 38.0518 67.4559 37.637 67.0904 37.2222C66.6639 36.7481 66.3593 36.2148 66.0547 35.6815C65.3236 34.3185 64.958 32.7185 64.958 30.9407C64.958 29.163 65.3236 27.563 66.1156 26.2C66.8467 24.837 67.8824 23.7111 69.2228 22.9407C70.5631 22.1704 72.0253 21.7555 73.6093 21.7555C73.853 21.7555 74.0967 21.7555 74.3404 21.7555L73.3656 23.4148C72.208 23.4741 71.1114 23.7704 70.1366 24.3037C69.1009 24.8963 68.248 25.7852 67.6387 26.9111C67.0295 28.037 66.7249 29.3407 66.7249 30.8815C66.7249 31.9481 66.8467 32.8963 67.2122 33.7852C67.3341 34.1407 67.4559 34.4963 67.6996 34.8518C67.8215 35.1481 68.0043 35.3852 68.187 35.6222C68.5526 36.0963 68.9181 36.5704 69.4055 36.9259C69.6492 37.1037 69.8929 37.2815 70.1975 37.4593C70.4412 37.5778 70.624 37.6963 70.8677 37.8148L70.0148 39.2963L67.3341 43.8C67.8824 43.9778 68.4307 44.1556 69.04 44.3333C69.6492 44.4518 70.1975 44.5704 70.8068 44.6889C71.7207 44.8074 72.6954 44.8667 73.6702 44.8667C76.6555 44.8667 79.3971 44.2741 81.7732 43.0296C84.0883 41.8444 85.977 40.1852 87.2564 38.0518C88.5967 35.9778 89.2669 33.5481 89.2669 30.8815C89.2669 28.2148 88.5967 25.8444 87.2564 23.7111C86.5862 22.6444 85.7942 21.6963 84.8803 20.8667L85.7333 19.3852C86.8908 20.3926 87.9265 21.5185 88.7185 22.8222C90.0589 25.3111 90.79 27.9778 90.79 31Z" fill="#54F7C5"/>
    <path d="M104.559 24.363C102.914 26.0222 102.061 28.2741 102.061 31C102.061 31.9481 102.183 32.7778 102.366 33.6074L103.767 31.237V31C103.767 28.6889 104.437 26.8518 105.777 25.5481C106.387 24.8963 107.118 24.4222 107.971 24.1259L109.189 22.0518C107.422 22.2889 105.838 23.1185 104.559 24.363ZM104.559 24.363C102.914 26.0222 102.061 28.2741 102.061 31C102.061 31.9481 102.183 32.7778 102.366 33.6074L103.767 31.237V31C103.767 28.6889 104.437 26.8518 105.777 25.5481C106.387 24.8963 107.118 24.4222 107.971 24.1259L109.189 22.0518C107.422 22.2889 105.838 23.1185 104.559 24.363ZM104.559 24.363C102.914 26.0222 102.061 28.2741 102.061 31C102.061 31.9481 102.183 32.7778 102.366 33.6074L103.767 31.237V31C103.767 28.6889 104.437 26.8518 105.777 25.5481C106.387 24.8963 107.118 24.4222 107.971 24.1259L109.189 22.0518C107.422 22.2889 105.838 23.1185 104.559 24.363ZM104.559 24.363C102.914 26.0222 102.061 28.2741 102.061 31C102.061 31.9481 102.183 32.7778 102.366 33.6074L103.767 31.237V31C103.767 28.6889 104.437 26.8518 105.777 25.5481C106.387 24.8963 107.118 24.4222 107.971 24.1259L109.189 22.0518C107.422 22.2889 105.838 23.1185 104.559 24.363ZM104.559 24.363C102.914 26.0222 102.061 28.2741 102.061 31C102.061 31.9481 102.183 32.7778 102.366 33.6074L103.767 31.237V31C103.767 28.6889 104.437 26.8518 105.777 25.5481C106.387 24.8963 107.118 24.4222 107.971 24.1259L109.189 22.0518C107.422 22.2889 105.838 23.1185 104.559 24.363ZM104.559 24.363C102.914 26.0222 102.061 28.2741 102.061 31C102.061 31.9481 102.183 32.7778 102.366 33.6074L103.767 31.237V31C103.767 28.6889 104.437 26.8518 105.777 25.5481C106.387 24.8963 107.118 24.4222 107.971 24.1259L109.189 22.0518C107.422 22.2889 105.838 23.1185 104.559 24.363ZM104.559 24.363C102.914 26.0222 102.061 28.2741 102.061 31C102.061 31.9481 102.183 32.7778 102.366 33.6074L103.767 31.237V31C103.767 28.6889 104.437 26.8518 105.777 25.5481C106.387 24.8963 107.118 24.4222 107.971 24.1259L109.189 22.0518C107.422 22.2889 105.838 23.1185 104.559 24.363ZM104.559 24.363C102.914 26.0222 102.061 28.2741 102.061 31C102.061 31.9481 102.183 32.7778 102.366 33.6074L103.767 31.237V31C103.767 28.6889 104.437 26.8518 105.777 25.5481C106.387 24.8963 107.118 24.4222 107.971 24.1259L109.189 22.0518C107.422 22.2889 105.838 23.1185 104.559 24.363ZM104.559 24.363C102.914 26.0222 102.061 28.2741 102.061 31C102.061 31.9481 102.183 32.7778 102.366 33.6074L103.767 31.237V31C103.767 28.6889 104.437 26.8518 105.777 25.5481C106.387 24.8963 107.118 24.4222 107.971 24.1259L109.189 22.0518C107.422 22.2889 105.838 23.1185 104.559 24.363ZM104.559 24.363C102.914 26.0222 102.061 28.2741 102.061 31C102.061 31.9481 102.183 32.7778 102.366 33.6074L103.767 31.237V31C103.767 28.6889 104.437 26.8518 105.777 25.5481C106.387 24.8963 107.118 24.4222 107.971 24.1259L109.189 22.0518C107.422 22.2889 105.838 23.1185 104.559 24.363Z" fill="#54F7C5"/>
    <path d="M114.916 30.1704H123.933V42.7926C122.105 44.037 120.034 44.9852 117.597 45.637C115.221 46.2889 112.845 46.6444 110.529 46.6444C108.58 46.6444 106.752 46.4074 105.046 45.9333L105.96 44.4519C107.422 44.8074 108.945 44.9852 110.529 44.9852C112.662 44.9852 114.916 44.6889 117.109 44.0963C118.998 43.563 120.704 42.8519 122.166 41.963V31.8296H116.622V38.8222L115.525 39.237C114.124 39.8296 112.601 40.0667 111.078 40.0667C110.164 40.0667 109.372 39.9481 108.58 39.7704C107.971 39.6519 107.422 39.4741 106.935 39.1778C106.387 38.9407 105.899 38.6444 105.473 38.2889L102.609 43.0889L101.756 44.5704C101.695 44.5704 101.695 44.5704 101.695 44.5111C101.208 44.2741 100.721 43.9778 100.294 43.7407C99.8067 43.4444 99.3193 43.0889 98.8929 42.7333C98.4055 42.3778 97.979 41.963 97.6135 41.5481C96.8824 40.7778 96.2122 39.8889 95.6029 39C94.1408 36.6296 93.4097 33.9037 93.4097 30.8815C93.4097 27.8593 94.1408 25.1926 95.6029 22.8222C97.0651 20.4519 99.1366 18.6148 101.817 17.2519C104.437 15.9481 107.422 15.2963 110.773 15.2963C111.565 15.2963 112.418 15.3556 113.149 15.4148C113.758 15.4741 114.368 15.5333 114.977 15.6519C115.586 15.7704 116.195 15.8889 116.744 16.0667C117.292 16.2444 117.84 16.4222 118.389 16.6L117.536 18.0815L114.977 22.4074C115.525 22.5852 116.013 22.8815 116.561 23.1185C117.048 23.4148 117.536 23.7111 117.962 24.0667C118.084 24.1852 118.206 24.2444 118.267 24.363L122.349 20.8667C121.8 20.3926 121.252 19.9185 120.643 19.563L121.496 18.0815C122.714 18.8519 123.872 19.8593 124.786 20.9852L118.145 26.6741C117.779 26.2593 117.414 25.9037 117.048 25.5481C116.622 25.1926 116.134 24.837 115.647 24.5407C115.16 24.2444 114.611 24.0074 114.063 23.8296C113.515 23.6519 112.905 23.5333 112.296 23.4148L113.21 21.8741L115.83 17.4889C115.282 17.3704 114.672 17.2519 114.063 17.1333C113.454 17.0148 112.845 16.9556 112.174 16.9556C111.687 16.8963 111.2 16.8963 110.773 16.8963C107.727 16.8963 104.985 17.4889 102.609 18.6741C100.233 19.8593 98.4055 21.5185 97.1261 23.5926C95.8466 25.6667 95.1765 28.0963 95.1765 30.8222C95.1765 33.4889 95.8466 35.9185 97.1261 38.0519C97.5525 38.763 98.0399 39.3556 98.5882 39.9481C99.0147 40.363 99.3803 40.7778 99.8677 41.1926C100.294 41.5482 100.782 41.9037 101.269 42.2L104.315 37.0444L105.229 35.4444C105.412 35.7407 105.655 35.9778 105.899 36.2148C106.082 36.3926 106.265 36.5704 106.447 36.7481C106.874 37.1037 107.361 37.4 107.91 37.637C108.458 37.8741 109.006 38.0519 109.616 38.1111C110.103 38.2296 110.651 38.2296 111.2 38.2296C112.54 38.2296 113.758 37.9926 114.977 37.5185V30.1704H114.916Z" fill="#54F7C5"/>
    <path d="M157.99 16.0667V32.4815C157.99 36.9259 156.649 40.4222 154.029 42.9111C151.41 45.4 147.693 46.6444 143.002 46.6444C141.296 46.6444 139.712 46.4667 138.25 46.1704C137.641 46.0518 137.092 45.8741 136.544 45.6963C135.996 45.5185 135.448 45.2815 134.96 45.0444C134.473 44.8074 133.924 44.5111 133.498 44.1556L134.351 42.6741L137.641 37.1037C137.336 36.5111 137.092 35.8 136.91 34.9704C136.727 34.1407 136.666 33.1926 136.666 32.1852V17.7259H129.782V32.4815C129.782 35.6222 130.452 38.1704 131.853 40.1259L130.939 41.7259C129.05 39.3556 128.076 36.2741 128.076 32.4815V16.0667H138.433V32.1852C138.433 32.3037 138.433 32.363 138.433 32.4815C138.433 33.5481 138.555 34.4963 138.798 35.2667C138.981 35.9778 139.286 36.5111 139.651 36.9852L139.712 37.0444L138.798 38.5852L135.874 43.5037C136.361 43.7407 136.91 43.9778 137.519 44.1556C138.067 44.3333 138.616 44.4518 139.225 44.5704C140.382 44.8074 141.662 44.9259 143.063 44.9259C147.328 44.9259 150.557 43.8593 152.872 41.6667C155.187 39.5333 156.284 36.5111 156.284 32.4815V17.7259H149.582V32.1852C149.582 34.7926 149.095 36.6889 147.998 37.9926C147.206 39 145.744 40.1259 143.124 40.1259C142.698 40.1259 142.271 40.0667 141.906 40.0074L142.88 38.4074C142.941 38.4074 143.063 38.4074 143.124 38.4074C144.647 38.4074 145.805 37.9333 146.597 36.9259C147.389 35.9185 147.815 34.3185 147.815 32.1259V16.0667H157.99Z" fill="#54F7C5"/>
    <path d="M186.929 38.1111V45.9333H171.698L172.672 44.2148L175.292 39.7704H171.332V17.7259H164.448V44.2148H168.712L167.677 45.9333H162.742V16.0667H173.038V38.1111H178.277L177.303 39.7704L174.683 44.2148H185.223V39.7704H181.324L182.298 38.1111H186.929Z" fill="#54F7C5"/>
    <g filter="url(#filter1_f)">
        <path d="M220.924 39.7704C218.548 42.1407 215.502 43.3259 211.847 43.3259C209.41 43.3259 207.216 42.7926 205.206 41.7259C203.195 40.6593 201.672 39.1778 200.515 37.2815C200.271 36.8667 200.027 36.4519 199.845 36.037H196.433C196.737 36.9852 197.164 37.9333 197.712 38.763C199.114 41.0741 201.002 42.9111 203.439 44.2148C205.876 45.5185 208.618 46.1704 211.664 46.1704C213.918 46.1704 216.051 45.8148 218 45.0444C219.95 44.2741 221.595 43.2074 222.935 41.7852L220.924 39.7704ZM218.061 16.8963C216.111 16.1852 214.04 15.7704 211.725 15.7704C208.679 15.7704 205.937 16.4222 203.5 17.7259C201.063 19.0296 199.114 20.8667 197.712 23.1778C197.164 24.0667 196.737 24.9556 196.433 25.9037H199.845C200.027 25.4889 200.271 25.0148 200.515 24.6C201.611 22.7037 203.195 21.2222 205.206 20.1556C207.216 19.0889 209.41 18.5556 211.847 18.5556C215.502 18.5556 218.548 19.7407 220.924 22.1111L222.996 20.0963C221.656 18.7333 220.011 17.6074 218.061 16.8963Z" fill="#D10286"/>
        <path d="M257.967 36.037C257.662 36.9852 257.235 37.9333 256.687 38.763C255.286 41.0741 253.336 42.9111 250.899 44.2148C248.462 45.5185 245.721 46.1704 242.675 46.1704C239.628 46.1704 236.887 45.5185 234.389 44.2148C231.891 42.9111 230.002 41.0741 228.601 38.763C228.053 37.8741 227.626 36.9852 227.322 36.037C226.773 34.4963 226.53 32.7778 226.53 31C226.53 29.2222 226.773 27.5037 227.322 25.963C227.626 25.0148 228.053 24.1259 228.601 23.237C230.002 20.9259 231.891 19.0889 234.389 17.7852C236.887 16.4815 239.628 15.7704 242.675 15.7704C245.721 15.7704 248.462 16.4222 250.899 17.7259C253.336 19.0296 255.286 20.8667 256.687 23.1778C257.235 24.0667 257.662 24.9556 257.967 25.9037H254.494C254.311 25.4296 254.067 25.0148 253.824 24.6C252.727 22.7037 251.204 21.2222 249.193 20.1556C247.244 19.0889 245.051 18.5556 242.614 18.5556C240.177 18.5556 237.983 19.0889 236.034 20.1556C234.084 21.2222 232.5 22.7037 231.403 24.6C231.16 25.0148 230.916 25.4296 230.733 25.9037C230.063 27.4444 229.698 29.163 229.698 30.9407C229.698 32.7185 230.063 34.437 230.733 35.9778C230.916 36.4519 231.16 36.8667 231.403 37.2815C232.5 39.1778 234.084 40.6593 236.034 41.7259C237.983 42.7926 240.238 43.3259 242.614 43.3259C245.051 43.3259 247.244 42.7926 249.193 41.7259C251.143 40.6593 252.666 39.1778 253.824 37.2815C254.067 36.8667 254.311 36.4519 254.494 35.9778H257.967V36.037Z" fill="#D10286"/>
        <path d="M269.298 16.0667H266.069V45.9333H269.298V16.0667Z" fill="#D10286"/>
        <path d="M304.939 16.0667V45.9333H302.259L294.217 36.037L285.992 25.963L282.519 21.6963V45.9333H279.29V16.0667H281.971L290.074 25.963L298.298 36.037L301.771 40.3037V16.0667H304.939Z" fill="#D10286"/>
        <path d="M202.038 31C202.038 32.837 202.404 34.4963 203.074 36.037H199.662C199.114 34.437 198.87 32.7778 198.87 31C198.87 29.2222 199.114 27.5037 199.662 25.963H203.074C202.404 27.5037 202.038 29.163 202.038 31Z" fill="#D10286"/>
        <path d="M255.59 31C255.59 32.7778 255.347 34.437 254.798 36.037H251.326C251.996 34.4963 252.361 32.7778 252.361 31C252.361 29.163 251.996 27.5037 251.326 25.963H254.798C255.286 27.5037 255.59 29.163 255.59 31Z" fill="#D10286"/>
    </g>
    <path d="M220.924 39.7704C218.548 42.1407 215.502 43.3259 211.847 43.3259C209.41 43.3259 207.216 42.7926 205.206 41.7259C203.195 40.6593 201.672 39.1778 200.515 37.2815C200.271 36.8667 200.027 36.4519 199.845 36.037H196.433C196.737 36.9852 197.164 37.9333 197.712 38.763C199.114 41.0741 201.002 42.9111 203.439 44.2148C205.876 45.5185 208.618 46.1704 211.664 46.1704C213.918 46.1704 216.051 45.8148 218 45.0444C219.95 44.2741 221.595 43.2074 222.935 41.7852L220.924 39.7704ZM218.061 16.8963C216.111 16.1852 214.04 15.7704 211.725 15.7704C208.679 15.7704 205.937 16.4222 203.5 17.7259C201.063 19.0296 199.114 20.8667 197.712 23.1778C197.164 24.0667 196.737 24.9556 196.433 25.9037H199.845C200.027 25.4889 200.271 25.0148 200.515 24.6C201.611 22.7037 203.195 21.2222 205.206 20.1556C207.216 19.0889 209.41 18.5556 211.847 18.5556C215.502 18.5556 218.548 19.7407 220.924 22.1111L222.996 20.0963C221.656 18.7333 220.011 17.6074 218.061 16.8963Z" fill="white"/>
    <path d="M257.967 36.037C257.662 36.9852 257.235 37.9333 256.687 38.763C255.286 41.0741 253.336 42.9111 250.899 44.2148C248.462 45.5185 245.721 46.1704 242.675 46.1704C239.628 46.1704 236.887 45.5185 234.389 44.2148C231.891 42.9111 230.002 41.0741 228.601 38.763C228.053 37.8741 227.626 36.9852 227.322 36.037C226.773 34.4963 226.53 32.7778 226.53 31C226.53 29.2222 226.773 27.5037 227.322 25.963C227.626 25.0148 228.053 24.1259 228.601 23.237C230.002 20.9259 231.891 19.0889 234.389 17.7852C236.887 16.4815 239.628 15.7704 242.675 15.7704C245.721 15.7704 248.462 16.4222 250.899 17.7259C253.336 19.0296 255.286 20.8667 256.687 23.1778C257.235 24.0667 257.662 24.9556 257.967 25.9037H254.494C254.311 25.4296 254.067 25.0148 253.824 24.6C252.727 22.7037 251.204 21.2222 249.193 20.1556C247.244 19.0889 245.051 18.5556 242.614 18.5556C240.177 18.5556 237.983 19.0889 236.034 20.1556C234.084 21.2222 232.5 22.7037 231.403 24.6C231.16 25.0148 230.916 25.4296 230.733 25.9037C230.063 27.4444 229.698 29.163 229.698 30.9407C229.698 32.7185 230.063 34.437 230.733 35.9778C230.916 36.4519 231.16 36.8667 231.403 37.2815C232.5 39.1778 234.084 40.6593 236.034 41.7259C237.983 42.7926 240.238 43.3259 242.614 43.3259C245.051 43.3259 247.244 42.7926 249.193 41.7259C251.143 40.6593 252.666 39.1778 253.824 37.2815C254.067 36.8667 254.311 36.4519 254.494 35.9778H257.967V36.037Z" fill="white"/>
    <path d="M269.298 16.0667H266.069V45.9333H269.298V16.0667Z" fill="white"/>
    <path d="M304.939 16.0667V45.9333H302.259L294.217 36.037L285.992 25.963L282.519 21.6963V45.9333H279.29V16.0667H281.971L290.074 25.963L298.298 36.037L301.771 40.3037V16.0667H304.939Z" fill="white"/>
    <path d="M202.038 31C202.038 32.837 202.404 34.4963 203.074 36.037H199.662C199.114 34.437 198.87 32.7778 198.87 31C198.87 29.2222 199.114 27.5037 199.662 25.963H203.074C202.404 27.5037 202.038 29.163 202.038 31Z" fill="white"/>
    <path d="M255.59 31C255.59 32.7778 255.347 34.437 254.798 36.037H251.326C251.996 34.4963 252.361 32.7778 252.361 31C252.361 29.163 251.996 27.5037 251.326 25.963H254.798C255.286 27.5037 255.59 29.163 255.59 31Z" fill="white"/>
    <defs>
        <filter id="filter0_f" x="0.54834" y="0.296295" width="201.38" height="61.3482" filterUnits="userSpaceOnUse" color-interpolation-filters="sRGB">
            <feFlood flood-opacity="0" result="BackgroundImageFix"/>
            <feBlend mode="normal" in="SourceGraphic" in2="BackgroundImageFix" result="shape"/>
            <feGaussianBlur stdDeviation="7.5" result="effect1_foregroundBlur"/>
        </filter>
        <filter id="filter1_f" x="181.433" y="0.77037" width="138.506" height="60.4" filterUnits="userSpaceOnUse" color-interpolation-filters="sRGB">
            <feFlood flood-opacity="0" result="BackgroundImageFix"/>
            <feBlend mode="normal" in="SourceGraphic" in2="BackgroundImageFix" result="shape"/>
            <feGaussianBlur stdDeviation="7.5" result="effect1_foregroundBlur"/>
        </filter>
    </defs>
</svg>
