<svg width="20" height="20" viewBox="0 0 20 20" fill="none" xmlns="http://www.w3.org/2000/svg">
    <path d="M19.2403 0.759533C18.6166 0.135771 17.6693 -0.105601 16.4248 0.0420975C14.4877 0.272024 11.1753 1.13622 7.98595 2.24374C5.88775 2.97235 2.17248 4.39 0.86468 5.69779C-0.265225 6.81117 -0.303351 8.14773 0.842257 9.23517C2.03541 10.3794 4.61307 11.3128 6.56538 11.8944C7.30805 12.1156 7.8829 12.69 8.10306 13.4309C8.85808 15.7431 10.0511 19.9239 12.5025 19.9999C13.1228 19.9999 13.7282 19.7091 14.3021 19.1352C17.0128 15.9386 19.4586 7.12263 19.9578 3.57502C20.1055 2.33062 19.8641 1.38333 19.2403 0.759533ZM18.4061 3.39091C17.9349 7.36083 14.8973 16.3302 13.1972 18.0303C12.628 18.5994 12.3388 18.5144 11.9416 18.1251C11.2122 17.4105 10.359 15.5373 9.60079 12.9858C9.22969 11.7372 8.2617 10.7694 7.0114 10.3969C4.52206 9.65537 2.66764 8.82086 1.92368 8.10741C1.75989 7.95034 1.56419 7.71803 1.56196 7.50306C1.89615 5.38908 13.1815 1.98839 16.6089 1.59373C17.121 1.53299 17.8015 1.5306 18.1354 1.86444C18.4693 2.19831 18.4669 2.87879 18.4061 3.39091ZM10.1954 10.5857C9.50942 10.5899 9.15039 9.74166 9.64298 9.25204L15.0728 3.82225C15.8349 3.11845 16.8812 4.16581 16.1776 4.92711L10.7478 10.3569C10.5953 10.5094 10.3953 10.5857 10.1954 10.5857Z" fill="#54F7C5"/>
</svg>
